<svg xmlns="http://www.w3.org/2000/svg" enable-background="new 0 0 48 48" viewBox="0 0 48 48">
    <path fill="#F23393" d="M38.4 45.7h-.3l-23.5-4.9c-.5-.1-.9-.6-.8-1.2L20 10.2c.1-.5.6-.9 1.2-.8l23.4 4.9c.5.1.9.6.8 1.2l-6 29.5c-.1.4-.5.7-1 .7z"/>
    <path fill="#FF73A6" d="M27 34H3c-.6 0-1-.4-1-1V3c0-.6.4-1 1-1h24c.6 0 1 .4 1 1v30c0 .6-.4 1-1 1z"/>
</svg>
